…
    ## Warning in mean.default(y, na.rm = TRUE): argument is not numeric or logical:
    ## returning NA
    
    ## Warning in mean.default(y, na.rm = TRUE): argument is not numeric or logical:
    ## returning NA
    
    ## Warning in mean.default(y, na.rm = TRUE): argument is not numeric or logical:
    ## returning NA

    ## Warning: 47 errors (1 unique) encountered for MEAN(targets_tsb)
    ## [47] non-numeric argument to binary operator

    ## # A mable: 47 x 2
    ## # Key:     siteID [47]
    ##    siteID `MEAN(targets_tsb)`
    ##    <chr>              <model>
    ##  1 ABBY          <NULL model>
    ##  2 BARR          <NULL model>
    ##  3 BART          <NULL model>
    ##  4 BLAN          <NULL model>
    ##  5 BONA          <NULL model>
    ##  6 CLBJ          <NULL model>
    ##  7 CPER          <NULL model>
    ##  8 DCFS          <NULL model>
    ##  9 DEJU          <NULL model>
    ## 10 DELA          <NULL model>
    ## # … with 37 more rows

Naïve method

\[\hat{Y}_{T+h|T} = Y_T\]

``` r
targets_tsb %>% model(NAIVE(targets_tsb))
```

    ## Warning: 47 errors (1 unique) encountered for NAIVE(targets_tsb)
    ## [47] invalid time series parameters specified

    ## # A mable: 47 x 2
    ## # Key:     siteID [47]
    ##    siteID `NAIVE(targets_tsb)`
    ##    <chr>               <model>
    ##  1 ABBY           <NULL model>
    ##  2 BARR           <NULL model>
    ##  3 BART           <NULL model>
    ##  4 BLAN           <NULL model>
    ##  5 BONA           <NULL model>
    ##  6 CLBJ           <NULL model>
    ##  7 CPER           <NULL model>
    ##  8 DCFS           <NULL model>
    ##  9 DEJU           <NULL model>
    ## 10 DELA           <NULL model>
    ## # … with 37 more rows

Seasonal naïve
    method

\[\hat{Y}_{T+h|T} = Y_{T+h-m(k+1)}\]

``` r
targets_tsb %>% model(SNAIVE(targets_tsb ~ lag("year")))
```

    ## Warning: 47 errors (1 unique) encountered for SNAIVE(targets_tsb ~ lag("year"))
    ## [47] invalid time series parameters specified

    ## # A mable: 47 x 2
    ## # Key:     siteID [47]
    ##    siteID `SNAIVE(targets_tsb ~ lag("year"))`
    ##    <chr>                              <model>
    ##  1 ABBY                          <NULL model>
    ##  2 BARR                          <NULL model>
    ##  3 BART                          <NULL model>
    ##  4 BLAN                          <NULL model>
    ##  5 BONA                          <NULL model>
    ##  6 CLBJ                          <NULL model>
    ##  7 CPER                          <NULL model>
    ##  8 DCFS                          <NULL model>
    ##  9 DEJU                          <NULL model>
    ## 10 DELA                          <NULL model>
    ## # … with 37 more rows

Drift
    method:

``` r
targets_tsb %>% model(RW(targets_tsb ~ drift()))
```

    ## Warning: 47 errors (1 unique) encountered for RW(targets_tsb ~ drift())
    ## [47] invalid time series parameters specified

    ## # A mable: 47 x 2
    ## # Key:     siteID [47]
    ##    siteID `RW(targets_tsb ~ drift())`
    ##    <chr>                      <model>
    ##  1 ABBY                  <NULL model>
    ##  2 BARR                  <NULL model>
    ##  3 BART                  <NULL model>
    ##  4 BLAN                  <NULL model>
    ##  5 BONA                  <NULL model>
    ##  6 CLBJ                  <NULL model>
    ##  7 CPER                  <NULL model>
    ##  8 DCFS                  <NULL model>
    ##  9 DEJU                  <NULL model>
    ## 10 DELA                  <NULL model>
    ## # … with 37 more rows
…
