…
    ## `summarise()` regrouping output by 'week' (override with `.groups` argument)

    ## # A tibble: 887 x 7
    ## # Groups:   week [46]
    ##    week  siteID mean_richness sd_richness mean_abundance sd_abundance  year
    ##    <chr> <chr>          <dbl>       <dbl>          <dbl>        <dbl> <dbl>
    ##  1 W02   SJER            3           1           0.0190       0.0109   2020
    ##  2 W04   SJER            3.33        1.53        0.0185       0.00604  2020
    ##  3 W06   SJER            3           0           0.0109       0.00636  2020
    ##  4 W06   STER            3           0           0.107        0.00636  2020
    ##  5 W07   STER            1         NaN           0.0714     NaN        2020
    ##  6 W08   SJER            2           1           0.00757      0.00346  2020
    ##  7 W08   STER            1           1           0.0714       0.00346  2020
    ##  8 W10   SJER            1.67        1.15        0.00587      0.00525  2020
    ##  9 W11   CLBJ            3.33        4.04        0.0113       0.00722  2020
    ## 10 W12   OAES            3           1.15        0.00595      0.00842  2020
    ## # … with 877 more rows
…
